…
# Confirm the splits (Analysis/Assess/Total): 
ponderosa_split

## <Analysis/Assess/Total>
## <293297/73325/366622>

# Extract the training and testing sets: 
ponderosa_train <- training(ponderosa_split)
ponderosa_test <- testing(ponderosa_split)

# Check them out a bit: 
ponderosa_train %>% 
  count(yr_since_fire, live_dead)

## # A tibble: 22 × 3
##    yr_since_fire live_dead     n
##            <dbl> <fct>     <int>
##  1             0 0         39824
##  2             0 1           561
##  3             1 0         39072
##  4             1 1         10385
##  5             2 0         26862
##  6             2 1         12835
##  7             3 0         23708
##  8             3 1         14808
##  9             4 0          8620
## 10             4 1         15011
## # … with 12 more rows

ponderosa_test %>% 
  count(yr_since_fire, live_dead)

## # A tibble: 22 × 3
##    yr_since_fire live_dead     n
##            <dbl> <fct>     <int>
##  1             0 0          9845
##  2             0 1           128
##  3             1 0          9807
##  4             1 1          2584
##  5             2 0          6846
##  6             2 1          3259
##  7             3 0          5845
##  8             3 1          3693
##  9             4 0          2183
## 10             4 1          3742
## # … with 12 more rows
…
# Confirm the splits (Analysis/Assess/Total): 
trees_20_split

## <Analysis/Assess/Total>
## <830790/207698/1038488>

# Extract the training and testing sets: 
trees_20_train <- training(trees_20_split)
trees_20_test <- testing(trees_20_split)

# Check them out a bit: 
trees_20_train %>% 
  count(yr_since_fire, live_dead)

## # A tibble: 22 × 3
##    yr_since_fire live_dead     n
##            <dbl> <fct>     <int>
##  1             0 0         77760
##  2             0 1          2962
##  3             1 0         73452
##  4             1 1         30750
##  5             2 0         51549
##  6             2 1         47307
##  7             3 0         43185
##  8             3 1         54802
##  9             4 0         22368
## 10             4 1         55530
## # … with 12 more rows

trees_20_test %>% 
  count(yr_since_fire, live_dead)

## # A tibble: 22 × 3
##    yr_since_fire live_dead     n
##            <dbl> <fct>     <int>
##  1             0 0         19366
##  2             0 1           692
##  3             1 0         18311
##  4             1 1          7444
##  5             2 0         12987
##  6             2 1         11759
##  7             3 0         10776
##  8             3 1         13666
##  9             4 0          5658
## 10             4 1         13913
## # … with 12 more rows
…
