…
# Confirm the splits (Analysis/Assess/Total): 
ponderosa_split

## <Analysis/Assess/Total>
## <293297/73325/366622>

# Extract the training and testing sets: 
ponderosa_train <- training(ponderosa_split)
ponderosa_test <- testing(ponderosa_split)

# Check them out a bit: 
ponderosa_train %>% 
  count(yr_since_fire, live_dead)

## # A tibble: 22 × 3
##    yr_since_fire live_dead     n
##            <dbl> <fct>     <int>
##  1             0 0         39815
##  2             0 1           535
##  3             1 0         39058
##  4             1 1         10455
##  5             2 0         26918
##  6             2 1         12846
##  7             3 0         23654
##  8             3 1         14864
##  9             4 0          8630
## 10             4 1         15046
## # … with 12 more rows

ponderosa_test %>% 
  count(yr_since_fire, live_dead)

## # A tibble: 22 × 3
##    yr_since_fire live_dead     n
##            <dbl> <fct>     <int>
##  1             0 0          9854
##  2             0 1           154
##  3             1 0          9821
##  4             1 1          2514
##  5             2 0          6790
##  6             2 1          3248
##  7             3 0          5899
##  8             3 1          3637
##  9             4 0          2173
## 10             4 1          3707
## # … with 12 more rows
…
# Confirm the splits (Analysis/Assess/Total): 
trees_20_split

## <Analysis/Assess/Total>
## <830790/207698/1038488>

# Extract the training and testing sets: 
trees_20_train <- training(trees_20_split)
trees_20_test <- testing(trees_20_split)

# Check them out a bit: 
trees_20_train %>% 
  count(yr_since_fire, live_dead)

## # A tibble: 22 × 3
##    yr_since_fire live_dead     n
##            <dbl> <fct>     <int>
##  1             0 0         77746
##  2             0 1          2902
##  3             1 0         73109
##  4             1 1         30620
##  5             2 0         51806
##  6             2 1         47314
##  7             3 0         43230
##  8             3 1         54831
##  9             4 0         22408
## 10             4 1         55584
## # … with 12 more rows

trees_20_test %>% 
  count(yr_since_fire, live_dead)

## # A tibble: 22 × 3
##    yr_since_fire live_dead     n
##            <dbl> <fct>     <int>
##  1             0 0         19380
##  2             0 1           752
##  3             1 0         18654
##  4             1 1          7574
##  5             2 0         12730
##  6             2 1         11752
##  7             3 0         10731
##  8             3 1         13637
##  9             4 0          5618
## 10             4 1         13859
## # … with 12 more rows
…
